{
  "name": "com-wui-framework-resource-writer",
  "description": "Multi-platform library that can inject (and extract) arbitrary content into binary files (including executable ones such as PE, ELF, Mach-O)",
  "version": "2019.1.0",
  "private": false,
  "homepage": "www.nxp.com",
  "author": {
    "name": "Karel Burda",
    "email": "karel.burda@nxp.com"
  },
  "license": "Copyright (c) 2019 NXP. The BSD-3-Clause license for this file can be found in the LICENSE.txt file included with this distribution or at https://spdx.org/licenses/BSD-3-Clause.html#licenseText.",
  "repository": {
    "type": "git",
    "url": "https://bitbucket.org/wuiframework/com-wui-framework-resource-writer.git"
  },
  "loaderClass": "Com.Wui.Framework.ResourceWriter.Loader",
  "target": {
    "name": "ResourceWriter",
    "copyright": "Copyright (c) 2019 NXP",
    "resources": [
      {
        "files": [
          {
            "src": "build/compiled/lib/*.a",
            "dest": "lib/*"
          },
          {
            "src": "source/cpp/Com/Wui/Framework/ResourceWriter/Core/*.hpp",
            "dest": "include/ResourceWriter/Core/*"
          },
          {
            "src": "source/cpp/Com/Wui/Framework/ResourceWriter/Logger/*.hpp",
            "dest": "include/ResourceWriter/Logger/*"
          },
          {
            "src": "source/cpp/Com/Wui/Framework/ResourceWriter/Reader/*.hpp",
            "dest": "include/ResourceWriter/Reader/*"
          },
          {
            "src": "source/cpp/Com/Wui/Framework/ResourceWriter/Reader/Detail/*.hpp",
            "dest": "include/ResourceWriter/Reader/Detail/*"
          },
          {
            "src": "source/cpp/Com/Wui/Framework/ResourceWriter/Utils/*.hpp",
            "dest": "include/ResourceWriter/Utils/*"
          },
          {
            "src": "source/cpp/Com/Wui/Framework/ResourceWriter/Writer/*.hpp",
            "dest": "include/ResourceWriter/Writer/*"
          },
          {
            "src": "source/cpp/Com/Wui/Framework/ResourceWriter/Reader/Writer/*.hpp",
            "dest": "include/ResourceWriter/Reader/Writer/*"
          },
          {
            "src": "source/cpp/Com/Wui/Framework/ResourceWriter/ResourceWriter.hpp",
            "dest": "include/ResourceWriter/ResourceWriter.hpp"
          }
        ],
        "postBuildCopy": true
      }
    ]
  },
  "releases": {
    "Win": {
      "skipped": false,
      "platforms": "lib-win-gcc"
    },
    "Linux": {
      "skipped": true,
      "platforms": "lib-linux-gcc"
    },
    "Arm": {
      "skipped": true,
      "platforms": "lib-imx-gcc"
    },
    "Mac": {
      "skipped": true,
      "platforms": "lib-mac-clang"
    }
  }
}
